%YAML 1.1
%TAG !u! tag:unity3d.com,2011:
--- !u!74 &7400000
AnimationClip:
  m_ObjectHideFlags: 0
  m_PrefabParentObject: {fileID: 0}
  m_PrefabInternal: {fileID: 0}
  m_Name: thunderstorm
  serializedVersion: 6
  m_Legacy: 0
  m_Compressed: 0
  m_UseHighQualityCurve: 1
  m_RotationCurves: []
  m_CompressedRotationCurves: []
  m_EulerCurves: []
  m_PositionCurves: []
  m_ScaleCurves: []
  m_FloatCurves:
  - curve:
      serializedVersion: 2
      m_Curve:
      - serializedVersion: 2
        time: 0
        value: 0
        inSlope: 479.99997
        outSlope: 479.99997
        tangentMode: 34
      - serializedVersion: 2
        time: 0.016666668
        value: 8
        inSlope: 0
        outSlope: 0
        tangentMode: 34
      - serializedVersion: 2
        time: 0.033333335
        value: 0
        inSlope: -239.99998
        outSlope: -239.99998
        tangentMode: 34
      - serializedVersion: 2
        time: 0.43333334
        value: 0
        inSlope: 80.00003
        outSlope: 80.00003
        tangentMode: 34
      - serializedVersion: 2
        time: 0.48333332
        value: 8
        inSlope: 58.181854
        outSlope: 58.181854
        tangentMode: 34
      - serializedVersion: 2
        time: 0.6666667
        value: 0
        inSlope: -21.818178
        outSlope: -21.818178
        tangentMode: 34
      - serializedVersion: 2
        time: 1.1166667
        value: 0
        inSlope: 120.000114
        outSlope: 120.000114
        tangentMode: 34
      - serializedVersion: 2
        time: 1.15
        value: 8
        inSlope: 40.00023
        outSlope: 40.00023
        tangentMode: 34
      - serializedVersion: 2
        time: 1.2
        value: 0
        inSlope: -79.999886
        outSlope: -79.999886
        tangentMode: 34
      - serializedVersion: 2
        time: 2.0666666
        value: 0
        inSlope: 120.000114
        outSlope: 120.000114
        tangentMode: 34
      - serializedVersion: 2
        time: 2.1
        value: 8
        inSlope: 90.00014
        outSlope: 90.00014
        tangentMode: 34
      - serializedVersion: 2
        time: 2.2333333
        value: 0
        inSlope: -29.999975
        outSlope: -29.999975
        tangentMode: 34
      - serializedVersion: 2
        time: 2.4666667
        value: 0
        inSlope: 120.000114
        outSlope: 120.000114
        tangentMode: 34
      - serializedVersion: 2
        time: 2.5
        value: 8
        inSlope: 40.00004
        outSlope: 40.00004
        tangentMode: 34
      - serializedVersion: 2
        time: 2.55
        value: 0
        inSlope: -80.00008
        outSlope: -80.00008
        tangentMode: 34
      - serializedVersion: 2
        time: 2.9833333
        value: 0
        inSlope: 240.00023
        outSlope: 240.00023
        tangentMode: 34
      - serializedVersion: 2
        time: 3
        value: 8
        inSlope: 224.00023
        outSlope: 224.00023
        tangentMode: 34
      - serializedVersion: 2
        time: 3.25
        value: 0
        inSlope: -16
        outSlope: -16
        tangentMode: 34
      - serializedVersion: 2
        time: 4.133333
        value: 0
        inSlope: 120.000114
        outSlope: 120.000114
        tangentMode: 34
      - serializedVersion: 2
        time: 4.1666665
        value: 8
        inSlope: 60.000057
        outSlope: 60.000057
        tangentMode: 34
      - serializedVersion: 2
        time: 4.233333
        value: 0
        inSlope: -120.000114
        outSlope: -120.000114
        tangentMode: 34
      m_PreInfinity: 2
      m_PostInfinity: 2
      m_RotationOrder: 4
    attribute: m_Intensity
    path: light
    classID: 108
    script: {fileID: 0}
  m_PPtrCurves: []
  m_SampleRate: 60
  m_WrapMode: 0
  m_Bounds:
    m_Center: {x: 0, y: 0, z: 0}
    m_Extent: {x: 0, y: 0, z: 0}
  m_ClipBindingConstant:
    genericBindings:
    - serializedVersion: 2
      path: 1796889847
      attribute: 898800009
      script: {fileID: 0}
      typeID: 108
      customType: 25
      isPPtrCurve: 0
    pptrCurveMapping: []
  m_AnimationClipSettings:
    serializedVersion: 2
    m_AdditiveReferencePoseClip: {fileID: 0}
    m_AdditiveReferencePoseTime: 0
    m_StartTime: 0
    m_StopTime: 4.233333
    m_OrientationOffsetY: 0
    m_Level: 0
    m_CycleOffset: 0
    m_HasAdditiveReferencePose: 0
    m_LoopTime: 1
    m_LoopBlend: 0
    m_LoopBlendOrientation: 0
    m_LoopBlendPositionY: 0
    m_LoopBlendPositionXZ: 0
    m_KeepOriginalOrientation: 0
    m_KeepOriginalPositionY: 1
    m_KeepOriginalPositionXZ: 0
    m_HeightFromFeet: 0
    m_Mirror: 0
  m_EditorCurves:
  - curve:
      serializedVersion: 2
      m_Curve:
      - serializedVersion: 2
        time: 0
        value: 0
        inSlope: 479.99997
        outSlope: 479.99997
        tangentMode: 34
      - serializedVersion: 2
        time: 0.016666668
        value: 8
        inSlope: 0
        outSlope: 0
        tangentMode: 34
      - serializedVersion: 2
        time: 0.033333335
        value: 0
        inSlope: -239.99998
        outSlope: -239.99998
        tangentMode: 34
      - serializedVersion: 2
        time: 0.43333334
        value: 0
        inSlope: 80.00003
        outSlope: 80.00003
        tangentMode: 34
      - serializedVersion: 2
        time: 0.48333332
        value: 8
        inSlope: 58.181854
        outSlope: 58.181854
        tangentMode: 34
      - serializedVersion: 2
        time: 0.6666667
        value: 0
        inSlope: -21.818178
        outSlope: -21.818178
        tangentMode: 34
      - serializedVersion: 2
        time: 1.1166667
        value: 0
        inSlope: 120.000114
        outSlope: 120.000114
        tangentMode: 34
      - serializedVersion: 2
        time: 1.15
        value: 8
        inSlope: 40.00023
        outSlope: 40.00023
        tangentMode: 34
      - serializedVersion: 2
        time: 1.2
        value: 0
        inSlope: -79.999886
        outSlope: -79.999886
        tangentMode: 34
      - serializedVersion: 2
        time: 2.0666666
        value: 0
        inSlope: 120.000114
        outSlope: 120.000114
        tangentMode: 34
      - serializedVersion: 2
        time: 2.1
        value: 8
        inSlope: 90.00014
        outSlope: 90.00014
        tangentMode: 34
      - serializedVersion: 2
        time: 2.2333333
        value: 0
        inSlope: -29.999975
        outSlope: -29.999975
        tangentMode: 34
      - serializedVersion: 2
        time: 2.4666667
        value: 0
        inSlope: 120.000114
        outSlope: 120.000114
        tangentMode: 34
      - serializedVersion: 2
        time: 2.5
        value: 8
        inSlope: 40.00004
        outSlope: 40.00004
        tangentMode: 34
      - serializedVersion: 2
        time: 2.55
        value: 0
        inSlope: -80.00008
        outSlope: -80.00008
        tangentMode: 34
      - serializedVersion: 2
        time: 2.9833333
        value: 0
        inSlope: 240.00023
        outSlope: 240.00023
        tangentMode: 34
      - serializedVersion: 2
        time: 3
        value: 8
        inSlope: 224.00023
        outSlope: 224.00023
        tangentMode: 34
      - serializedVersion: 2
        time: 3.25
        value: 0
        inSlope: -16
        outSlope: -16
        tangentMode: 34
      - serializedVersion: 2
        time: 4.133333
        value: 0
        inSlope: 120.000114
        outSlope: 120.000114
        tangentMode: 34
      - serializedVersion: 2
        time: 4.1666665
        value: 8
        inSlope: 60.000057
        outSlope: 60.000057
        tangentMode: 34
      - serializedVersion: 2
        time: 4.233333
        value: 0
        inSlope: -120.000114
        outSlope: -120.000114
        tangentMode: 34
      m_PreInfinity: 2
      m_PostInfinity: 2
      m_RotationOrder: 4
    attribute: m_Intensity
    path: light
    classID: 108
    script: {fileID: 0}
  m_EulerEditorCurves: []
  m_HasGenericRootTransform: 0
  m_HasMotionFloatCurves: 0
  m_GenerateMotionCurves: 0
  m_Events: []
