%YAML 1.1
%TAG !u! tag:unity3d.com,2011:
--- !u!74 &7400000
AnimationClip:
  m_ObjectHideFlags: 0
  m_PrefabParentObject: {fileID: 0}
  m_PrefabInternal: {fileID: 0}
  m_Name: Alien Animation
  serializedVersion: 6
  m_Legacy: 0
  m_Compressed: 0
  m_UseHighQualityCurve: 1
  m_RotationCurves: []
  m_CompressedRotationCurves: []
  m_EulerCurves: []
  m_PositionCurves: []
  m_ScaleCurves: []
  m_FloatCurves: []
  m_PPtrCurves:
  - curve:
    - time: 0
      value: {fileID: 21300000, guid: b91471d8a3d61dd4c891ec494fa16bf6, type: 3}
    - time: 0.25
      value: {fileID: 21300000, guid: 13f74c108519ee647bd598a18a7ee5ec, type: 3}
    - time: 0.5
      value: {fileID: 21300000, guid: 1d3af9a78bbe32b4fa5e83b164073501, type: 3}
    - time: 0.75
      value: {fileID: 21300000, guid: 39fe1c20b025e424abb0f318483411b3, type: 3}
    - time: 1
      value: {fileID: 21300000, guid: c641f723e1103d947a99d1cd8ad35ff9, type: 3}
    - time: 1.25
      value: {fileID: 21300000, guid: 45687ece2d9434842a360ccd028f48a2, type: 3}
    - time: 1.5
      value: {fileID: 21300000, guid: b91471d8a3d61dd4c891ec494fa16bf6, type: 3}
    attribute: m_Sprite
    path: 
    classID: 114
    script: {fileID: -765806418, guid: f5f67c52d1564df4a8936ccd202a3bd8, type: 3}
  m_SampleRate: 60
  m_WrapMode: 0
  m_Bounds:
    m_Center: {x: 0, y: 0, z: 0}
    m_Extent: {x: 0, y: 0, z: 0}
  m_ClipBindingConstant:
    genericBindings:
    - serializedVersion: 2
      path: 0
      attribute: 2015549526
      script: {fileID: -765806418, guid: f5f67c52d1564df4a8936ccd202a3bd8, type: 3}
      typeID: 114
      customType: 0
      isPPtrCurve: 1
    pptrCurveMapping:
    - {fileID: 21300000, guid: b91471d8a3d61dd4c891ec494fa16bf6, type: 3}
    - {fileID: 21300000, guid: 13f74c108519ee647bd598a18a7ee5ec, type: 3}
    - {fileID: 21300000, guid: 1d3af9a78bbe32b4fa5e83b164073501, type: 3}
    - {fileID: 21300000, guid: 39fe1c20b025e424abb0f318483411b3, type: 3}
    - {fileID: 21300000, guid: c641f723e1103d947a99d1cd8ad35ff9, type: 3}
    - {fileID: 21300000, guid: 45687ece2d9434842a360ccd028f48a2, type: 3}
    - {fileID: 21300000, guid: b91471d8a3d61dd4c891ec494fa16bf6, type: 3}
  m_AnimationClipSettings:
    serializedVersion: 2
    m_AdditiveReferencePoseClip: {fileID: 0}
    m_AdditiveReferencePoseTime: 0
    m_StartTime: 0
    m_StopTime: 1.5166667
    m_OrientationOffsetY: 0
    m_Level: 0
    m_CycleOffset: 0
    m_HasAdditiveReferencePose: 0
    m_LoopTime: 1
    m_LoopBlend: 0
    m_LoopBlendOrientation: 0
    m_LoopBlendPositionY: 0
    m_LoopBlendPositionXZ: 0
    m_KeepOriginalOrientation: 0
    m_KeepOriginalPositionY: 1
    m_KeepOriginalPositionXZ: 0
    m_HeightFromFeet: 0
    m_Mirror: 0
  m_EditorCurves: []
  m_EulerEditorCurves: []
  m_HasGenericRootTransform: 0
  m_HasMotionFloatCurves: 0
  m_GenerateMotionCurves: 0
  m_Events: []
